<svg width="24" height="23" viewBox="0 0 24 23" fill="none" xmlns="http://www.w3.org/2000/svg">
<path d="M5.44827 22.9995V7.48081H0.303457V22.9995H5.44872H5.44827ZM2.87676 5.36237C4.67053 5.36237 5.78724 4.17063 5.78724 2.68141C5.75353 1.15838 4.67052 0 2.91093 0C1.14998 0 0 1.15838 0 2.68141C0 4.17063 1.11626 5.36237 2.84304 5.36237H2.87631H2.87676ZM8.29582 22.9995H13.4402V14.3342C13.4402 13.8709 13.4739 13.4066 13.6097 13.0758C13.9815 12.1486 14.828 11.189 16.2495 11.189C18.1107 11.189 18.8556 12.612 18.8556 14.6984V22.9995H24V14.1016C24 9.33513 21.4622 7.11707 18.0774 7.11707C15.3023 7.11707 14.0835 8.6721 13.4065 9.73132H13.4406V7.48127H8.29626C8.36325 8.93713 8.29582 23 8.29582 23V22.9995Z" fill="#333333"/>
</svg>
